DATS6101 Group Project: App Analysis
…
How are free apps distributed by category

## # A tibble: 33 x 2
##    Category           NumOfApps
##    <fct>                  <int>
##  1 BEAUTY                    42
##  2 EVENTS                    45
##  3 PARENTING                 48
##  4 COMICS                    54
##  5 ART_AND_DESIGN            58
##  6 HOUSE_AND_HOME            62
##  7 LIBRARIES_AND_DEMO        64
##  8 WEATHER                   65
##  9 AUTO_AND_VEHICLES         72
## 10 FOOD_AND_DRINK            92
## # ... with 23 more rows
…
