Description of Data
…
How are free apps distributed by category

## # A tibble: 33 x 2
##    Category      NumOfApps
##    <fct>             <int>
##  1 FAMILY             1560
##  2 GAME                997
##  3 TOOLS               671
##  4 PRODUCTIVITY        316
##  5 FINANCE             304
##  6 PHOTOGRAPHY         288
##  7 LIFESTYLE           287
##  8 COMMUNICATION       285
##  9 SPORTS              264
## 10 BUSINESS            261
## # ... with 23 more rows
…
